<svg id="icon01" xmlns="http://www.w3.org/2000/svg" width="80" height="69.784" viewBox="0 0 80 69.784">
  <path id="Path_479" data-name="Path 479" d="M1560.555,33.61h-.064a1.27,1.27,0,0,0-1.218.961,3.884,3.884,0,0,1-3.749,2.916h-2.659c-.609-8.651-7.305-16.341-17.782-20.41.032-.417.064-.833.064-1.25a15.828,15.828,0,1,0-31.656,0c0,.417.032.865.064,1.25-7.113,2.755-12.56,7.177-15.507,12.624a6.494,6.494,0,0,0-6.248,6.472v5.191a6.466,6.466,0,0,0,6.248,6.44,26.884,26.884,0,0,0,10.573,10.317V68.182a1.587,1.587,0,0,0,1.6,1.6h9.708a1.586,1.586,0,0,0,1.6-1.6V62.639a45.013,45.013,0,0,0,15.508,0v5.543a1.587,1.587,0,0,0,1.6,1.6h9.708a1.587,1.587,0,0,0,1.6-1.6V58.121c7.753-4.422,12.4-10.926,12.88-18.071h2.627a6.491,6.491,0,0,0,6.28-4.934A1.178,1.178,0,0,0,1560.555,33.61ZM1519.319,2.563A13.265,13.265,0,0,1,1528,25.857h-17.333a13.121,13.121,0,0,1-4.582-10.029A13.264,13.264,0,0,1,1519.319,2.563Zm18.776,53.7-.673.352V67.221h-7.754v-7.69l-1.57.32a43.215,43.215,0,0,1-17.558,0l-1.57-.32v7.69h-7.754V56.615l-.673-.352A24.415,24.415,0,0,1,1490,45.978l-.353-.737H1488.3a3.87,3.87,0,0,1-3.877-3.877V36.174A3.87,3.87,0,0,1,1488.3,32.3h1.345l.353-.737c2.435-5,7.5-9.26,13.97-11.887a15.76,15.76,0,0,0,3.108,6.152h-1.987a1.282,1.282,0,0,0,0,2.563h28.42a1.282,1.282,0,1,0,0-2.563h-1.986a15.979,15.979,0,0,0,3.107-6.152c9.708,3.941,15.7,11.15,15.7,19.064C1550.367,45.69,1545.881,52.066,1538.095,56.263Z" transform="translate(-1481.8 0)" fill="#16344a"/>
  <path id="Path_480" data-name="Path 480" d="M1522.939,90.3a4.739,4.739,0,1,0,4.739,4.739A4.755,4.755,0,0,0,1522.939,90.3Zm0,6.789a2.058,2.058,0,0,1-2.05-2.05,2.037,2.037,0,0,1,2.05-2.05,2.05,2.05,0,1,1,0,4.1Z" transform="translate(-1505.966 -61.578)" fill="#16344a"/>
  <path id="Path_481" data-name="Path 481" d="M1585.836,28.4h2.958a1.479,1.479,0,0,1,0,2.958h-4.437a1.479,1.479,0,0,0,0,2.958h1.479v1.479a1.479,1.479,0,0,0,2.958,0V34.313a4.437,4.437,0,0,0,0-8.873h-2.958a1.479,1.479,0,0,1,0-2.958h4.437a1.479,1.479,0,1,0,0-2.958h-1.479V18.079a1.479,1.479,0,0,0-2.958,0v1.479a4.42,4.42,0,1,0,0,8.839Z" transform="translate(-1549.744 -11.021)" fill="#16344a"/>
</svg>
