<svg id="icon05" xmlns="http://www.w3.org/2000/svg" width="67.619" height="56.331" viewBox="0 0 67.619 56.331">
  <path id="Path_462" data-name="Path 462" d="M923.069,7.9h-47.43a4.457,4.457,0,0,0-4.451,4.451v13.62h-6.837a4.457,4.457,0,0,0-4.451,4.451V59.781a4.457,4.457,0,0,0,4.451,4.451h47.43a4.457,4.457,0,0,0,4.451-4.451V46.16h6.837a4.457,4.457,0,0,0,4.451-4.451V12.351A4.457,4.457,0,0,0,923.069,7.9Zm-8.982,51.854a2.334,2.334,0,0,1-2.332,2.333h-47.4a2.334,2.334,0,0,1-2.333-2.333V30.422a2.334,2.334,0,0,1,2.333-2.333h47.43a2.334,2.334,0,0,1,2.333,2.333V59.754ZM925.4,41.71a2.334,2.334,0,0,1-2.333,2.333h-6.837V30.422a4.457,4.457,0,0,0-4.451-4.451H873.306V21.306h52.1v20.4Zm0-22.522h-52.1V14.523h52.1v4.665Zm0-6.783h-52.1v-.08a2.334,2.334,0,0,1,2.333-2.333h47.43a2.334,2.334,0,0,1,2.333,2.333Z" transform="translate(-859.9 -7.9)" fill="#14334b"/>
  <path id="Path_463" data-name="Path 463" d="M886.246,153.291h6.783a1.047,1.047,0,0,0,1.046-1.046,1.065,1.065,0,0,0-1.046-1.046h-6.783a1.046,1.046,0,0,0,0,2.091Z" transform="translate(-878.417 -112.779)" fill="#14334b"/>
  <path id="Path_464" data-name="Path 464" d="M964.3,167.9h-2.252A1.047,1.047,0,0,0,961,168.946a1.065,1.065,0,0,0,1.046,1.046H964.3a1.046,1.046,0,1,0,0-2.091Z" transform="translate(-933.893 -125.001)" fill="#14334b"/>
  <path id="Path_465" data-name="Path 465" d="M989.6,167.9h-2.252a1.047,1.047,0,0,0-1.046,1.046,1.065,1.065,0,0,0,1.046,1.046H989.6a1.046,1.046,0,1,0,0-2.091Z" transform="translate(-952.41 -125.001)" fill="#14334b"/>
  <path id="Path_466" data-name="Path 466" d="M935.129,151.1h-6.783a1.047,1.047,0,0,0-1.046,1.046,1.065,1.065,0,0,0,1.046,1.046h6.783a1.046,1.046,0,0,0,0-2.091Z" transform="translate(-909.229 -112.706)" fill="#14334b"/>
  <path id="Path_467" data-name="Path 467" d="M977.229,151.1h-6.783a1.047,1.047,0,0,0-1.046,1.046,1.065,1.065,0,0,0,1.046,1.046h6.783a1.046,1.046,0,0,0,0-2.091Z" transform="translate(-940.041 -112.706)" fill="#14334b"/>
  <path id="Path_468" data-name="Path 468" d="M894.155,184.8h-7.91a1.047,1.047,0,0,0-1.046,1.046,1.065,1.065,0,0,0,1.046,1.046h7.91a1.046,1.046,0,0,0,0-2.091Z" transform="translate(-878.417 -137.37)" fill="#14334b"/>
  <path id="Path_469" data-name="Path 469" d="M938.2,184.8h-5.657a1.047,1.047,0,0,0-1.046,1.046,1.065,1.065,0,0,0,1.046,1.046H938.2a1.046,1.046,0,0,0,0-2.091Z" transform="translate(-912.303 -137.37)" fill="#14334b"/>
  <path id="Path_470" data-name="Path 470" d="M1019.329,151.1h-6.783a1.047,1.047,0,0,0-1.046,1.046,1.065,1.065,0,0,0,1.046,1.046h6.783a1.046,1.046,0,0,0,0-2.091Z" transform="translate(-970.853 -112.706)" fill="#14334b"/>
  <path id="Path_472" data-name="Path 472" d="M997.507,96.3a5.485,5.485,0,0,1-5.63,0,8.852,8.852,0,1,0,5.63,0Zm-4.5,8.848a3.1,3.1,0,0,1-1.126.188,3.459,3.459,0,1,1,0-6.917,3.811,3.811,0,0,1,1.126.188,5.524,5.524,0,0,0,0,6.542Zm1.689-1.26a3.437,3.437,0,0,1-.643-1.984,3.374,3.374,0,0,1,.643-1.984,3.436,3.436,0,0,1,.644,1.984A3.875,3.875,0,0,1,994.692,103.888Zm2.815,1.448a3.81,3.81,0,0,1-1.126-.188,5.525,5.525,0,0,0,0-6.542,3.107,3.107,0,0,1,1.126-.188,3.459,3.459,0,1,1,0,6.917Z" transform="translate(-952.41 -72.598)" fill="#14334b"/>
  <g id="Ellipse_20" data-name="Ellipse 20" transform="translate(9.528 24.132)" fill="none" stroke="#14334b" stroke-width="1">
    <circle cx="3.5" cy="3.5" r="3.5" stroke="none"/>
    <circle cx="3.5" cy="3.5" r="3" fill="none"/>
  </g>
  <g id="Path_516" data-name="Path 516" transform="translate(7.528 30.132)" fill="none">
    <path d="M5.5,0C8.538,0,11,1.791,11,4S0,6.209,0,4,2.462,0,5.5,0Z" stroke="none"/>
    <path d="M 5.5 0.9999995231628418 C 3.122684001922607 0.9999995231628418 1.104894638061523 2.304899215698242 1.003961563110352 3.876586437225342 C 1.146688461303711 3.986576557159424 1.553617477416992 4.199679374694824 2.401180267333984 4.377009391784668 C 3.263700008392334 4.557469367980957 4.36421012878418 4.656849384307861 5.5 4.656849384307861 C 6.63578987121582 4.656849384307861 7.736299991607666 4.557469367980957 8.598819732666016 4.377009391784668 C 9.446382522583008 4.199679374694824 9.853311538696289 3.986576557159424 9.996038436889648 3.876586437225342 C 9.895105361938477 2.304899215698242 7.877315998077393 0.9999995231628418 5.5 0.9999995231628418 M 5.5 -4.76837158203125e-07 C 8.537569999694824 -4.76837158203125e-07 11 1.790859222412109 11 3.999999523162842 C 11 5.104569435119629 8.25 5.656854629516602 5.5 5.656854629516602 C 2.75 5.656854629516602 0 5.104569435119629 0 3.999999523162842 C 0 1.790859222412109 2.462430000305176 -4.76837158203125e-07 5.5 -4.76837158203125e-07 Z" stroke="none" fill="#14334b"/>
  </g>
</svg>
